@startuml
Quizmaster -> Server: RegisterQuizmaster
Server -> Quizmaster: WelcomeQuizmaster
Presenter -> Server: RegisterPresenter
Server -> Presenter: WelcomePresenter
"Participant 1" -> Server: RegisterParticipant
Server -> "Participant 1": WelcomeParticipant
Server -> Quizmaster: ReportRegistration
"Participant 2" -> Server: RegisterParticipant
Server -> "Participant 2": WelcomeParticipant
Server -> Quizmaster: ReportRegistration
"Participant 3" -> Server: RegisterParticipant
Server -> "Participant 3": WelcomeParticipant
Server -> Quizmaster: ReportRegistration
Quizmaster -> Server: KickParticipant
Server -> "Participant 3": Kicked
Quizmaster -> Server: Go
Server -> Presenter: AskQuestion
Server -> "Participant 1": AskQuestion
Server -> "Participant 2": AskQuestion
...
"Participant 1" -> Server: GiveAnswer
...
"Participant 2" -> Server: GiveAnswer
Server -> Presenter: ReportResults
Server -> "Participant 1": GiveFeedback
Server -> "Participant 2": GiveFeedback
Server -> Quizmaster: ReportAnswered
...
Quizmaster -> Server: Next
@enduml
